^D:\GILAD\עבודה\מגשימים\עקרונות מתקדמים CPP\הסבר גיט\MYHW\HESBER\PROJECT2\PROJECT2\MAG.CPP|D:\GILAD\עבודה\מגשימים\עקרונות מתקדמים CPP\הסבר גיט\MYHW\HESBER\PROJECT2\PROJECT2\SOURCE.CPP
D:\GILAD\עבודה\מגשימים\עקרונות מתקדמים CPP\הסבר גיט\MYHW\HESBER\PROJECT2\PROJECT2\DEBUG\VC142.PDB
D:\GILAD\עבודה\מגשימים\עקרונות מתקדמים CPP\הסבר גיט\MYHW\HESBER\PROJECT2\PROJECT2\DEBUG\VC142.IDB
D:\GILAD\עבודה\מגשימים\עקרונות מתקדמים CPP\הסבר גיט\MYHW\HESBER\PROJECT2\PROJECT2\DEBUG\SOURCE.OBJ
D:\GILAD\עבודה\מגשימים\עקרונות מתקדמים CPP\הסבר גיט\MYHW\HESBER\PROJECT2\PROJECT2\DEBUG\MAG.OBJ
^D:\GILAD\עבודה\מגשימים\עקרונות מתקדמים CPP\הסבר גיט\MYHW\HESBER\PROJECT2\PROJECT2\MAG.CPP
D:\GILAD\עבודה\מגשימים\עקרונות מתקדמים CPP\הסבר גיט\MYHW\HESBER\PROJECT2\PROJECT2\DEBUG\VC142.PDB
^D:\GILAD\עבודה\מגשימים\עקרונות מתקדמים CPP\הסבר גיט\MYHW\HESBER\PROJECT2\PROJECT2\SOURCE.CPP
D:\GILAD\עבודה\מגשימים\עקרונות מתקדמים CPP\הסבר גיט\MYHW\HESBER\PROJECT2\PROJECT2\DEBUG\VC142.PDB
